DTU02139/Lab/lab5/test_run_dir/SevenSegTest_should_pass/CountSevenSeg.vcd
$date
2023-12-16T15:20+0000
$end
$version
0.2
$end
$comment

$end
$timescale 1ns  $end
$scope module CountSevenSeg $end
 $var wire 4 ! io_an $end
 $var wire 26 " clk $end
 $var wire 1 # tick $end
 $var wire 1 $ clock $end
 $var wire 1 % decoder $end
 $var wire 1 ( reset $end
 $var wire 7 . io_seg $end
 $var wire 7 / sevSeg $end
 $var wire 4 5 cnt $end
  $scope module decoder $end
   $var wire 7 & sevSeg $end
   $var wire 7 ' num_14 $end
   $var wire 7 ) num_15 $end
   $var wire 7 * num_12 $end
   $var wire 7 + num_13 $end
   $var wire 7 , num_10 $end
   $var wire 7 - num_11 $end
   $var wire 4 0 io_sw $end
   $var wire 7 1 io_seg $end
   $var wire 7 2 num_1 $end
   $var wire 7 3 num_2 $end
   $var wire 7 4 num_0 $end
   $var wire 7 6 num_5 $end
   $var wire 7 7 num_6 $end
   $var wire 7 8 num_3 $end
   $var wire 7 9 num_4 $end
   $var wire 7 : num_9 $end
   $var wire 7 ; num_7 $end
   $var wire 7 < num_8 $end
  $upscope $end
$upscope $end
$enddefinitions $end
$dumpvars
b0000000 ;
b0000000 :
b0000000 <
b0000000 3
b0000000 2
b0000000 4
b0000000 7
b0000000 6
b0000000 9
b0000000 8
b0000000 +
b0000000 *
b0000000 -
b0000000 ,
b0000000 /
b0000 !
b0000000 .
b0000000 1
b0000000 '
b0000000 &
b0000000 )
b0000 5
b00000000000000000000000000 "
0#
b0000 0
0$
0%
0(
$end
#0
b1110 !
1#
b0111111 &
b1111001 '
1(
b1111110 )
b0111001 *
b1011110 +
b1110111 ,
b1111100 -
b1000000 .
b0111111 /
b1000000 1
b0000110 2
b1011011 3
b0111111 4
b1101101 6
b1111101 7
b1001111 8
b1100110 9
b1101111 :
b0000111 ;
b1111111 <
#1
b10111110101111000010000000 "
0#
1$
#6
0$
0(
#11
b10111110101111000001111111 "
1$
#16
0$
#21
b10111110101111000001111110 "
1$
#26
0$
#31
b10111110101111000001111101 "
1$
#36
0$
#41
b10111110101111000001111100 "
1$
#46
0$
#51
b10111110101111000001111011 "
1$
#56
0$
#61
b10111110101111000001111010 "
1$
#66
0$
#71
b10111110101111000001111001 "
1$
#76
0$
#81
b10111110101111000001111000 "
1$
#86
0$
#91
b10111110101111000001110111 "
1$
#96
0$
#101
b10111110101111000001110110 "
1$
#106
0$
#111
b10111110101111000001110101 "
1$
#116
0$
#121
b10111110101111000001110100 "
1$
#126
0$
#131
b10111110101111000001110011 "
1$
#136
0$
#141
b10111110101111000001110010 "
1$
#146
0$
#151
b10111110101111000001110001 "
1$
#156
0$
#161
b10111110101111000001110000 "
1$
#166
0$
#171
b10111110101111000001101111 "
1$
#176
0$
#181
b10111110101111000001101110 "
1$
#186
0$
#191
b10111110101111000001101101 "
1$
#196
0$
#201
b10111110101111000001101100 "
1$
#206
0$
#211
b10111110101111000001101011 "
1$
#216
0$
#221
b10111110101111000001101010 "
1$
#226
0$
#231
b10111110101111000001101001 "
1$
#236
0$
#241
b10111110101111000001101000 "
1$
#246
0$
#251
b10111110101111000001100111 "
1$
#256
0$
#261
b10111110101111000001100110 "
1$
#266
0$
#271
b10111110101111000001100101 "
1$
#276
0$
#281
b10111110101111000001100100 "
1$
#286
0$
#291
b10111110101111000001100011 "
1$
#296
0$
#301
b10111110101111000001100010 "
1$
#306
0$
#311
b10111110101111000001100001 "
1$
#316
0$
#321
b10111110101111000001100000 "
1$
#326
0$
#331
b10111110101111000001011111 "
1$
#336
0$
#341
b10111110101111000001011110 "
1$
#346
0$
#351
b10111110101111000001011101 "
1$
#356
0$
#361
b10111110101111000001011100 "
1$
#366
0$
#371
b10111110101111000001011011 "
1$
#376
0$
#381
b10111110101111000001011010 "
1$
#386
0$
#391
b10111110101111000001011001 "
1$
#396
0$
#401
b10111110101111000001011000 "
1$
#406
0$
#411
b10111110101111000001010111 "
1$
#416
0$
#421
b10111110101111000001010110 "
1$
#426
0$
#431
b10111110101111000001010101 "
1$
#436
0$
#441
b10111110101111000001010100 "
1$
#446
0$
#451
b10111110101111000001010011 "
1$
#456
0$
#461
b10111110101111000001010010 "
1$
#466
0$
#471
b10111110101111000001010001 "
1$
#476
0$
#481
b10111110101111000001010000 "
1$
#486
0$
#491
b10111110101111000001001111 "
1$
#496
0$
#501
b10111110101111000001001110 "
1$
#506
0$
#511
b10111110101111000001001101 "
1$
#516
0$
#521
b10111110101111000001001100 "
1$
#526
0$
#531
b10111110101111000001001011 "
1$
#536
0$
#541
b10111110101111000001001010 "
1$
#546
0$
#551
b10111110101111000001001001 "
1$
#556
0$
#561
b10111110101111000001001000 "
1$
#566
0$
#571
b10111110101111000001000111 "
1$
#576
0$
#581
b10111110101111000001000110 "
1$
#586
0$
#591
b10111110101111000001000101 "
1$
#596
0$
#601
b10111110101111000001000100 "
1$
#606
0$
#611
b10111110101111000001000011 "
1$
#616
0$
#621
b10111110101111000001000010 "
1$
#626
0$
#631
b10111110101111000001000001 "
1$
#636
0$
#641
b10111110101111000001000000 "
1$
#646
0$
#651
b10111110101111000000111111 "
1$
#656
0$
#661
b10111110101111000000111110 "
1$
#666
0$
#671
b10111110101111000000111101 "
1$
#676
0$
#681
b10111110101111000000111100 "
1$
#686
0$
#691
b10111110101111000000111011 "
1$
#696
0$
#701
b10111110101111000000111010 "
1$
#706
0$
#711
b10111110101111000000111001 "
1$
#716
0$
#721
b10111110101111000000111000 "
1$
#726
0$
#731
b10111110101111000000110111 "
1$
#736
0$
#741
b10111110101111000000110110 "
1$
#746
0$
#751
b10111110101111000000110101 "
1$
#756
0$
#761
b10111110101111000000110100 "
1$
#766
0$
#771
b10111110101111000000110011 "
1$
#776
0$
#781
b10111110101111000000110010 "
1$
#786
0$
#791
b10111110101111000000110001 "
1$
#796
0$
#801
b10111110101111000000110000 "
1$
#806
0$
#811
b10111110101111000000101111 "
1$
#816
0$
#821
b10111110101111000000101110 "
1$
#826
0$
#831
b10111110101111000000101101 "
1$
#836
0$
#841
b10111110101111000000101100 "
1$
#846
0$
#851
b10111110101111000000101011 "
1$
#856
0$
#861
b10111110101111000000101010 "
1$
#866
0$
#871
b10111110101111000000101001 "
1$
#876
0$
#881
b10111110101111000000101000 "
1$
#886
0$
#891
b10111110101111000000100111 "
1$
#896
0$
#901
b10111110101111000000100110 "
1$
#906
0$
#911
b10111110101111000000100101 "
1$
#916
0$
#921
b10111110101111000000100100 "
1$
#926
0$
#931
b10111110101111000000100011 "
1$
#936
0$
#941
b10111110101111000000100010 "
1$
#946
0$
#951
b10111110101111000000100001 "
1$
#956
0$
#961
b10111110101111000000100000 "
1$
#966
0$
#971
b10111110101111000000011111 "
1$
#976
0$
#981
b10111110101111000000011110 "
1$
#986
0$
#991
b10111110101111000000011101 "
1$
#996
0$
#1001
b10111110101111000000011100 "
1$
