DTU02139/Lab/lab3/test_run_dir/CountWave6_should_pass/Count6.vcd
$date
2023-12-14T13:22+0000
$end
$version
0.2
$end
$comment

$end
$timescale 1ns  $end
$scope module Count6 $end
 $var wire 8 ! res $end
 $var wire 8 " io_dout $end
 $var wire 1 # reset $end
 $var wire 1 $ clock $end
$upscope $end
$enddefinitions $end
$dumpvars
0#
0$
b00000000 "
b00000000 !
$end
#0
1#
#1
1$
#6
0#
0$
#11
b00000001 !
b00000001 "
1$
#16
0$
#21
b00000010 !
b00000010 "
1$
#26
0$
#31
b00000011 !
b00000011 "
1$
#36
0$
#41
b00000100 !
b00000100 "
1$
#46
0$
#51
b00000101 !
b00000101 "
1$
#56
0$
#61
b00000110 !
b00000110 "
1$
#66
0$
#71
b00000000 !
b00000000 "
1$
#76
0$
#81
b00000001 !
b00000001 "
1$
#86
0$
#91
b00000010 !
b00000010 "
1$
#96
0$
#101
b00000011 !
b00000011 "
1$
#106
0$
#111
b00000100 !
b00000100 "
1$
#116
0$
#121
b00000101 !
b00000101 "
1$
#126
0$
#131
b00000110 !
b00000110 "
1$
#136
0$
#141
b00000000 !
b00000000 "
1$
#146
0$
#151
b00000001 !
b00000001 "
1$
#156
0$
#161
b00000010 !
b00000010 "
1$
#166
0$
#171
b00000011 !
b00000011 "
1$
#176
0$
#181
b00000100 !
b00000100 "
1$
#186
0$
#191
b00000101 !
b00000101 "
1$
#196
0$
#201
b00000110 !
b00000110 "
1$
